<svg width="24" height="24" viewBox="0 0 24 24" fill="none" xmlns="http://www.w3.org/2000/svg">
<path d="M23.1528 17.2333C22.1472 16.2292 21.1416 15.2251 20.1797 14.2647C19.0866 13.1733 17.6001 13.1733 16.4633 14.2647L16.3321 14.3956C15.8075 14.8759 15.2828 15.3997 14.8019 15.9236C14.7144 15.8799 14.627 15.8363 14.5395 15.7926C14.3209 15.6617 14.0586 15.5744 13.8837 15.4434C12.3097 14.4393 10.8669 13.1296 9.46774 11.427C8.81191 10.6412 8.33096 9.89905 8.02491 9.15689C8.46213 8.72033 8.89935 8.28377 9.33658 7.84721L9.68635 7.49795C10.8231 6.36289 10.8231 4.87859 9.68635 3.74352C9.33658 3.39428 9.03052 3.08868 8.68074 2.73943L8.24352 2.30287C8.06863 2.12824 7.93747 1.99727 7.76258 1.82265C7.4128 1.4734 7.06302 1.12415 6.75697 0.818554C5.66391 -0.272851 4.17735 -0.272851 3.04057 0.818554C2.77824 1.08049 2.55963 1.29878 2.2973 1.56071C1.94752 1.90996 1.59774 2.30287 1.20424 2.65212C0.504686 3.30696 0.111187 4.18008 0.0237428 5.18417C-0.107424 6.7558 0.329795 8.1528 0.723295 9.20055C1.59774 11.558 2.95313 13.7844 4.83319 16.0546C7.19419 18.8486 9.99241 21.0314 13.2279 22.603C15.0205 23.4761 16.5507 23.9127 18.0373 24C18.1685 24 18.2559 24 18.3871 24C19.6988 24 20.7044 23.5634 21.4914 22.6467C21.8411 22.2537 22.1909 21.9482 22.5407 21.5553C22.7156 21.3806 22.9342 21.1623 23.1091 20.9877C24.2896 19.8527 24.2896 18.3247 23.1528 17.2333ZM22.0597 19.8963C21.8849 20.0709 21.6662 20.2892 21.4914 20.4638C21.0979 20.8131 20.7044 21.206 20.3546 21.6426C19.7862 22.2538 19.1304 22.5157 18.1247 22.472C16.8568 22.3847 15.5014 21.9918 13.8837 21.2497C10.8669 19.7654 8.1998 17.7135 5.96996 15.0941C4.22107 12.9986 2.95313 10.9031 2.12241 8.72033C1.64146 7.36699 1.42285 6.3629 1.5103 5.3588C1.55402 4.74762 1.77263 4.2674 2.20985 3.83084C2.60335 3.48159 2.95313 3.08868 3.34663 2.73943C3.60896 2.47749 3.82757 2.25921 4.08991 1.99728C4.35224 1.73534 4.61457 1.60437 4.87691 1.60437C5.13924 1.60437 5.40158 1.73534 5.66391 1.99728C6.01369 2.34653 6.36347 2.69577 6.66952 3.00136C6.84441 3.17599 6.97557 3.30696 7.15046 3.48158L7.58769 3.91815C7.93746 4.2674 8.24352 4.57299 8.5933 4.92224C9.16169 5.48977 9.16169 5.96999 8.5933 6.53752L8.24352 6.88677C7.76257 7.36699 7.28163 7.84721 6.75697 8.32743C6.49463 8.58936 6.2323 9.02593 6.49463 9.63711C6.88813 10.5539 7.45652 11.4707 8.24352 12.4748C9.73008 14.3083 11.3041 15.749 13.053 16.8404C13.3153 17.015 13.5776 17.146 13.84 17.2769C14.0149 17.3643 14.146 17.4079 14.2772 17.4952C14.7581 17.7572 15.2828 17.6699 15.72 17.2769C16.2884 16.7094 16.8568 16.1419 17.4252 15.5744L17.5564 15.4434C18.081 14.9632 18.6057 14.9632 19.0866 15.4434C20.0485 16.4038 21.0541 17.4079 22.0597 18.3684C22.5844 18.8049 22.5844 19.3724 22.0597 19.8963Z" fill="#D2D2D2"/>
</svg>
